<svg width="12" height="12" viewBox="0 0 12 12" fill="none" xmlns="http://www.w3.org/2000/svg">
<path d="M6.49991 4.28503C6.40602 4.28503 6.31304 4.30353 6.22629 4.33946C6.13955 4.37539 6.06072 4.42806 5.99433 4.49445C5.92794 4.56085 5.87527 4.63967 5.83934 4.72642C5.80341 4.81316 5.78491 4.90614 5.78491 5.00003C5.78491 5.09393 5.80341 5.18691 5.83934 5.27365C5.87527 5.3604 5.92794 5.43922 5.99433 5.50562C6.06072 5.57201 6.13955 5.62468 6.22629 5.66061C6.31304 5.69654 6.40602 5.71503 6.49991 5.71503C6.68954 5.71503 6.87141 5.6397 7.00549 5.50562C7.13958 5.37153 7.21491 5.18966 7.21491 5.00003C7.21491 4.8104 7.13958 4.62854 7.00549 4.49445C6.87141 4.36036 6.68954 4.28503 6.49991 4.28503Z" fill="#ECF1F0"/>
<path d="M6.5 1.5C4.625 1.5 3.1 2.97 3.01 4.82L2.05 6.1C2.02214 6.13714 2.00518 6.18131 2.00101 6.22755C1.99684 6.27379 2.00563 6.32028 2.02639 6.3618C2.04716 6.40333 2.07907 6.43825 2.11857 6.46266C2.15806 6.48707 2.20357 6.5 2.25 6.5L3 6.5L3 8C3 8.55 3.45 9 4 9L4.5 9L4.5 10.5L8 10.5L8 8.16C8.71715 7.81905 9.29701 7.24435 9.64436 6.53028C9.99171 5.81621 10.0859 5.00524 9.91141 4.23058C9.73693 3.45592 9.30419 2.76363 8.68426 2.26742C8.06433 1.77121 7.29407 1.50058 6.5 1.5ZM8 5C8 5.065 7.995 5.13 7.99 5.195L8.405 5.525C8.445 5.555 8.455 5.605 8.43 5.65L8.03 6.345C8.005 6.39 7.95 6.405 7.91 6.39L7.415 6.19C7.31 6.27 7.2 6.335 7.08 6.385L7 6.915C6.995 6.965 6.95 7 6.9 7L6.1 7C6.05 7 6.01 6.965 6 6.915L5.925 6.385C5.8 6.335 5.69 6.27 5.585 6.19L5.09 6.39C5.045 6.405 4.99 6.39 4.965 6.345L4.565 5.65C4.55293 5.62977 4.5488 5.60578 4.55342 5.58268C4.55804 5.55959 4.57108 5.53903 4.59 5.525L5.01 5.195C5.005 5.13 5 5.065 5 5C5 4.935 5.01 4.865 5.02 4.805L4.595 4.475C4.555 4.445 4.545 4.395 4.57 4.345L4.97 3.655C4.995 3.61 5.045 3.595 5.09 3.61L5.59 3.81C5.69 3.735 5.805 3.665 5.925 3.615L6 3.085C6.01 3.035 6.05 3 6.1 3L6.9 3C6.95 3 6.99 3.035 7 3.085L7.075 3.615C7.195 3.665 7.305 3.73 7.41 3.81L7.91 3.61C7.955 3.595 8.01 3.61 8.03 3.655L8.43 4.345C8.4424 4.36599 8.4467 4.39079 8.44209 4.41473C8.43749 4.43867 8.4243 4.4601 8.405 4.475L7.98 4.805C7.995 4.865 8 4.93 8 5Z" fill="#ECF1F0"/>
</svg>
